<?xml version="1.0" encoding="UTF-8" standalone="no"?>
<!-- Created with Inkscape (http://www.inkscape.org/) -->

<svg
   xmlns:dc="http://purl.org/dc/elements/1.1/"
   xmlns:cc="http://creativecommons.org/ns#"
   xmlns:rdf="http://www.w3.org/1999/02/22-rdf-syntax-ns#"
   xmlns:svg="http://www.w3.org/2000/svg"
   xmlns="http://www.w3.org/2000/svg"
   xmlns:xlink="http://www.w3.org/1999/xlink"
   xmlns:sodipodi="http://sodipodi.sourceforge.net/DTD/sodipodi-0.dtd"
   xmlns:inkscape="http://www.inkscape.org/namespaces/inkscape"
   width="744.09448819"
   height="1052.3622047"
   id="svg2"
   version="1.1"
   inkscape:version="0.48.4 r9939"
   inkscape:export-filename="C:\Users\sirdorius\Documents\Unity\boardgameprototyping\Assets\Textures\Gradients.png"
   inkscape:export-xdpi="90"
   inkscape:export-ydpi="90"
   sodipodi:docname="gradients.svg">
  <defs
     id="defs4">
    <linearGradient
       id="linearGradient3835">
      <stop
         id="stop3837"
         offset="0"
         style="stop-color:#c3c3c3;stop-opacity:1;" />
      <stop
         id="stop3839"
         offset="1"
         style="stop-color:#ffffff;stop-opacity:1;" />
    </linearGradient>
    <linearGradient
       id="linearGradient3825">
      <stop
         id="stop3827"
         offset="0"
         style="stop-color:#ffffff;stop-opacity:0;" />
      <stop
         id="stop3829"
         offset="1"
         style="stop-color:#ffffff;stop-opacity:1;" />
    </linearGradient>
    <linearGradient
       id="linearGradient3807">
      <stop
         style="stop-color:#ffffff;stop-opacity:1;"
         offset="0"
         id="stop3809" />
      <stop
         style="stop-color:#ffffff;stop-opacity:0;"
         offset="1"
         id="stop3811" />
    </linearGradient>
    <linearGradient
       id="linearGradient3799">
      <stop
         style="stop-color:#888888;stop-opacity:1;"
         offset="0"
         id="stop3801" />
      <stop
         style="stop-color:#ffffff;stop-opacity:1;"
         offset="1"
         id="stop3803" />
    </linearGradient>
    <linearGradient
       id="linearGradient3789">
      <stop
         id="stop3791"
         offset="0"
         style="stop-color:#5a5a5a;stop-opacity:1;" />
      <stop
         id="stop3793"
         offset="1"
         style="stop-color:#ffffff;stop-opacity:1;" />
    </linearGradient>
    <linearGradient
       id="linearGradient3783">
      <stop
         id="stop3785"
         offset="0"
         style="stop-color:#393939;stop-opacity:1;" />
      <stop
         id="stop3787"
         offset="1"
         style="stop-color:#ffffff;stop-opacity:1;" />
    </linearGradient>
    <linearGradient
       id="linearGradient3777">
      <stop
         id="stop3779"
         offset="0"
         style="stop-color:#222222;stop-opacity:1;" />
      <stop
         id="stop3781"
         offset="1"
         style="stop-color:#ffffff;stop-opacity:1;" />
    </linearGradient>
    <linearGradient
       id="linearGradient3757">
      <stop
         style="stop-color:#000000;stop-opacity:1;"
         offset="0"
         id="stop3759" />
      <stop
         style="stop-color:#ffffff;stop-opacity:1;"
         offset="1"
         id="stop3761" />
    </linearGradient>
    <linearGradient
       inkscape:collect="always"
       xlink:href="#linearGradient3757"
       id="linearGradient3763"
       x1="118.57143"
       y1="711.2193"
       x2="118.57143"
       y2="194.04164"
       gradientUnits="userSpaceOnUse"
       gradientTransform="translate(-88.571426,342.28572)" />
    <linearGradient
       inkscape:collect="always"
       xlink:href="#linearGradient3777"
       id="linearGradient3767"
       gradientUnits="userSpaceOnUse"
       x1="118.57143"
       y1="711.2193"
       x2="118.57143"
       y2="194.04164"
       gradientTransform="translate(-18.57143,342.28572)" />
    <linearGradient
       inkscape:collect="always"
       xlink:href="#linearGradient3783"
       id="linearGradient3771"
       gradientUnits="userSpaceOnUse"
       gradientTransform="translate(51.42857,342.28572)"
       x1="118.57143"
       y1="711.2193"
       x2="118.57143"
       y2="194.04164" />
    <linearGradient
       inkscape:collect="always"
       xlink:href="#linearGradient3789"
       id="linearGradient3775"
       gradientUnits="userSpaceOnUse"
       gradientTransform="translate(121.42857,342.28572)"
       x1="118.57143"
       y1="711.2193"
       x2="118.57143"
       y2="194.04164" />
    <linearGradient
       inkscape:collect="always"
       xlink:href="#linearGradient3799"
       id="linearGradient3797"
       gradientUnits="userSpaceOnUse"
       gradientTransform="translate(191.42857,342.28572)"
       x1="118.57143"
       y1="711.2193"
       x2="118.57143"
       y2="194.04164" />
    <radialGradient
       inkscape:collect="always"
       xlink:href="#linearGradient3807"
       id="radialGradient3813"
       cx="476.42856"
       cy="811.64789"
       fx="476.42856"
       fy="811.64789"
       r="46.42857"
       gradientUnits="userSpaceOnUse" />
    <radialGradient
       inkscape:collect="always"
       xlink:href="#linearGradient3807"
       id="radialGradient3819"
       gradientUnits="userSpaceOnUse"
       cx="476.42856"
       cy="811.64789"
       fx="476.42856"
       fy="811.64789"
       r="46.42857" />
    <linearGradient
       inkscape:collect="always"
       xlink:href="#linearGradient3835"
       id="linearGradient3823"
       gradientUnits="userSpaceOnUse"
       gradientTransform="translate(449.42856,342.28572)"
       x1="118.57143"
       y1="711.2193"
       x2="118.57143"
       y2="194.04164" />
    <linearGradient
       inkscape:collect="always"
       xlink:href="#linearGradient3825"
       id="linearGradient3833"
       gradientUnits="userSpaceOnUse"
       gradientTransform="translate(529.4285,342.28572)"
       x1="118.57143"
       y1="711.2193"
       x2="118.57143"
       y2="194.04164" />
  </defs>
  <sodipodi:namedview
     id="base"
     pagecolor="#ffffff"
     bordercolor="#666666"
     borderopacity="1.0"
     inkscape:pageopacity="0.0"
     inkscape:pageshadow="2"
     inkscape:zoom="0.98994949"
     inkscape:cx="415.85219"
     inkscape:cy="228.54226"
     inkscape:document-units="px"
     inkscape:current-layer="layer1"
     showgrid="true"
     inkscape:window-width="1366"
     inkscape:window-height="745"
     inkscape:window-x="-8"
     inkscape:window-y="-8"
     inkscape:window-maximized="1"
     inkscape:snap-grids="true">
    <inkscape:grid
       type="xygrid"
       id="grid3815"
       empspacing="5"
       visible="true"
       enabled="true"
       snapvisiblegridlinesonly="false"
       dotted="true" />
  </sodipodi:namedview>
  <metadata
     id="metadata7">
    <rdf:RDF>
      <cc:Work
         rdf:about="">
        <dc:format>image/svg+xml</dc:format>
        <dc:type
           rdf:resource="http://purl.org/dc/dcmitype/StillImage" />
        <dc:title></dc:title>
      </cc:Work>
    </rdf:RDF>
  </metadata>
  <g
     inkscape:label="Layer 1"
     inkscape:groupmode="layer"
     id="layer1">
    <rect
       style="color:#000000;fill:url(#linearGradient3763);fill-opacity:1;fill-rule:nonzero;stroke:none;stroke-width:14.61100006;marker:none;visibility:visible;display:inline;overflow:visible;enable-background:accumulate"
       id="rect2987"
       width="64"
       height="512"
       x="0"
       y="540.36218" />
    <rect
       y="540.36218"
       x="70"
       height="512"
       width="64"
       id="rect3765"
       style="color:#000000;fill:url(#linearGradient3767);fill-opacity:1;fill-rule:nonzero;stroke:none;stroke-width:14.61100006;marker:none;visibility:visible;display:inline;overflow:visible;enable-background:accumulate" />
    <rect
       style="color:#000000;fill:url(#linearGradient3771);fill-opacity:1;fill-rule:nonzero;stroke:none;stroke-width:14.61100006;marker:none;visibility:visible;display:inline;overflow:visible;enable-background:accumulate"
       id="rect3769"
       width="64"
       height="512"
       x="140"
       y="540.36218" />
    <rect
       y="540.36218"
       x="210"
       height="512"
       width="64"
       id="rect3773"
       style="color:#000000;fill:url(#linearGradient3775);fill-opacity:1;fill-rule:nonzero;stroke:none;stroke-width:14.61100006;marker:none;visibility:visible;display:inline;overflow:visible;enable-background:accumulate" />
    <rect
       style="color:#000000;fill:url(#linearGradient3797);fill-opacity:1.0;fill-rule:nonzero;stroke:none;stroke-width:14.61100006000000000;marker:none;visibility:visible;display:inline;overflow:visible;enable-background:accumulate"
       id="rect3795"
       width="64"
       height="512"
       x="280"
       y="540.36218" />
    <path
       sodipodi:type="arc"
       style="color:#000000;fill:url(#radialGradient3813);fill-opacity:1;fill-rule:nonzero;stroke:none;stroke-width:14.61100006;marker:none;visibility:visible;display:inline;overflow:visible;enable-background:accumulate"
       id="path3805"
       sodipodi:cx="476.42856"
       sodipodi:cy="811.64789"
       sodipodi:rx="46.42857"
       sodipodi:ry="46.42857"
       d="m 522.85713,811.64789 a 46.42857,46.42857 0 1 1 -92.85714,0 46.42857,46.42857 0 1 1 92.85714,0 z"
       transform="matrix(1.3784616,0,0,0.68923079,-222.73848,170.94947)" />
    <path
       transform="matrix(1.3784616,0,0,1.3784616,-222.73848,-130.46325)"
       d="m 522.85713,811.64789 a 46.42857,46.42857 0 1 1 -92.85714,0 46.42857,46.42857 0 1 1 92.85714,0 z"
       sodipodi:ry="46.42857"
       sodipodi:rx="46.42857"
       sodipodi:cy="811.64789"
       sodipodi:cx="476.42856"
       id="path3817"
       style="color:#000000;fill:url(#radialGradient3819);fill-opacity:1;fill-rule:nonzero;stroke:none;stroke-width:14.61100006;marker:none;visibility:visible;display:inline;overflow:visible;enable-background:accumulate"
       sodipodi:type="arc" />
    <rect
       y="540.36218"
       x="538"
       height="512"
       width="64"
       id="rect3821"
       style="color:#000000;fill:url(#linearGradient3823);fill-opacity:1.0;fill-rule:nonzero;stroke:none;stroke-width:14.61100006000000000;marker:none;visibility:visible;display:inline;overflow:visible;enable-background:accumulate" />
    <rect
       style="color:#000000;fill:url(#linearGradient3833);fill-opacity:1;fill-rule:nonzero;stroke:none;stroke-width:14.61100006;marker:none;visibility:visible;display:inline;overflow:visible;enable-background:accumulate"
       id="rect3831"
       width="64"
       height="512"
       x="618"
       y="540.36218" />
  </g>
</svg>
